Arthropod associations with residual dry matter and foundations shrubs in California desert ecosystems
…
ants %>% count(morph)

## # A tibble: 23 x 2
##    morph               n
##    <chr>           <int>
##  1 Camponotus 1        2
##  2 Camponotus 2        1
##  3 Crematogaster 1     7
##  4 Crematogaster 2     1
##  5 Dorymyrmex 1        9
##  6 Dorymyrmex 2       24
##  7 Dorymyrmex 3        2
##  8 Forelius 1         25
##  9 Messor 1           45
## 10 Messor 2            5
## # ... with 13 more rows
…
ants %>% count(morph)

## # A tibble: 22 x 2
##    morph               n
##    <chr>           <int>
##  1 Camponotus 1        2
##  2 Camponotus 2        1
##  3 Crematogaster 1     7
##  4 Dorymyrmex 1        9
##  5 Dorymyrmex 2       19
##  6 Dorymyrmex 3        2
##  7 Forelius 1         24
##  8 Messor 1           34
##  9 Messor 2            5
## 10 Myrmecocystus 1     3
## # ... with 12 more rows
…
